[{"requirement":"System And Communications Protection","description":"Inventory Of Personally Identifiable Information","assignPolicy":"30","total":"1807","fail":"103","high":"26","medium":"57","low":"20","pass":"1704","posture":"94"},
{"requirement":"System And Information Integrity","description":"Privacy Notice","assignPolicy":"10","total":"1306","fail":"60","high":"23","medium":"17","low":"20","pass":"1246","posture":"95"},
{"requirement":"Security Assessment And Authorization","description":"Security Assessment And Authorization Policy And Procedures","assignPolicy":"7","total":"423","fail":"42","high":"3","medium":"39","low":"0","pass":"381","posture":"90"},
{"requirement":"Access Control","description":"Access Control Policy And Procedures","assignPolicy":"22","total":"1601","fail":"32","high":"3","medium":"1","low":"28","pass":"1569","posture":"98"},
{"requirement":"Audit And Accountability","description":"Audit And Accountability Policy And Procedures","assignPolicy":"10","total":"41","fail":"12","high":"0","medium":"4","low":"8","pass":"29","posture":"70"},
{"requirement":"Configuration Management","description":"Configuration Management Policy And Procedures","assignPolicy":"6","total":"43","fail":"11","high":"0","medium":"11","low":"0","pass":"32","posture":"74"},
{"requirement":"Identification And Authentication","description":"Identification And Authentication Policy And Procedures","assignPolicy":"18","total":"54","fail":"6","high":"0","medium":"6","low":"0","pass":"48","posture":"88"},
{"requirement":"Risk Assessment","description":"System And Services Acquisition Policy And Procedures","assignPolicy":"2","total":"5","fail":"2","high":"0","medium":"2","low":"0","pass":"3","posture":"60"},
{"requirement":"System And Services Acquisition","description":"System And Communications Protection Policy And Procedures","assignPolicy":"1","total":"12","fail":"1","high":"0","medium":"1","low":"0","pass":"11","posture":"91"},
{"requirement":"Maintenance","description":"System Maintenance Policy And Procedures","assignPolicy":"0","total":"0","fail":"0","high":"0","medium":"0","low":"0","pass":"0","posture":"0"},
{"requirement":"Use Limitation","description":"Use Limitation","assignPolicy":"0","total":"0","fail":"0","high":"0","medium":"0","low":"0","pass":"0","posture":"0"},
{"requirement":"Physical And Environmental Protection","description":"Physical And Environmental Protection Policy And Procedures","assignPolicy":"0","total":"0","fail":"0","high":"0","medium":"0","low":"0","pass":"0","posture":"0"},
{"requirement":"Data Quality And Integrity","description":"Data Quality And Integrity","assignPolicy":"0","total":"0","fail":"0","high":"0","medium":"0","low":"0","pass":"0","posture":"0"},
{"requirement":"Security","description":"System And Information Integrity Policy And Procedures","assignPolicy":"0","total":"0","fail":"0","high":"0","medium":"0","low":"0","pass":"0","posture":"0"},
{"requirement":"Individual Participation And Redress","description":"Consent","assignPolicy":"0","total":"0","fail":"0","high":"0","medium":"0","low":"0","pass":"0","posture":"0"},
{"requirement":"Awareness And Training","description":"Security Awareness And Training Policy And Procedures","assignPolicy":"0","total":"0","fail":"0","high":"0","medium":"0","low":"0","pass":"0","posture":"0"},
{"requirement":"Planning","description":"Security Planning Policy And Procedures","assignPolicy":"0","total":"0","fail":"0","high":"0","medium":"0","low":"0","pass":"0","posture":"0"},
{"requirement":"Media Protection","description":"Media Protection Policy And Procedures","assignPolicy":"0","total":"0","fail":"0","high":"0","medium":"0","low":"0","pass":"0","posture":"0"},
{"requirement":"Incident Response","description":"Incident Response Policy And Procedures","assignPolicy":"0","total":"0","fail":"0","high":"0","medium":"0","low":"0","pass":"0","posture":"0"},
{"requirement":"Transperancy","description":"Transperancy","assignPolicy":"0","total":"0","fail":"0","high":"0","medium":"0","low":"0","pass":"0","posture":"0"},
{"requirement":"Program Management","description":"Information Security Program Plan","assignPolicy":"0","total":"0","fail":"0","high":"0","medium":"0","low":"0","pass":"0","posture":"0"},
{"requirement":"Personnel Security","description":"Risk Assessment Policy And Procedures","assignPolicy":"0","total":"0","fail":"0","high":"0","medium":"0","low":"0","pass":"0","posture":"0"},
{"requirement":"Authority And Purpose","description":"Authority To Collect","assignPolicy":"0","total":"0","fail":"0","high":"0","medium":"0","low":"0","pass":"0","posture":"0"},
{"requirement":"Accountability, Audit, And Risk Management","description":"Governance And Privacy Program","assignPolicy":"0","total":"0","fail":"0","high":"0","medium":"0","low":"0","pass":"0","posture":"0"},
{"requirement":"Contingency Planning","description":"Contingency Planning Policy And Procedures","assignPolicy":"0","total":"0","fail":"0","high":"0","medium":"0","low":"0","pass":"0","posture":"0"},
{"requirement":"Data As Of: 22 minutes ag","description":"","assignPolicy":"","total":"","fail":"","high":"","medium":"","low":"","pass":"","posture":""}]